{
    "port": ":8085",

    "ddcinputsource": "60",
    "ddchdmi": "17",
    "ddcdp": "15",
    "ddcpowermode": "d6",
    "ddcon": "01",
    "ddcoff": "05",
    "ddcsleep": "04",

    "evdevkeyboard": "/dev/input/btkeyboard",

    "wwwstatsrefreshinterval": 1000
}