module sys-go

go 1.17

require (
	github.com/gorilla/mux v1.8.0
	github.com/gvalkov/golang-evdev v0.0.0-20191114124502-287e62b94bcb
)

require (
	github.com/andybalholm/brotli v1.0.3 // indirect
	github.com/davecgh/go-spew v1.1.1 // indirect
	github.com/digitalocean/go-libvirt v0.0.0-20210723161134-761cfeeb5968 // indirect
	github.com/gin-contrib/sse v0.1.0 // indirect
	github.com/gin-gonic/gin v1.7.4 // indirect
	github.com/go-playground/locales v0.14.0 // indirect
	github.com/go-playground/universal-translator v0.18.0 // indirect
	github.com/go-playground/validator v9.31.0+incompatible
	github.com/go-playground/validator/v10 v10.9.0 // indirect
	github.com/gofiber/fiber/v2 v2.19.0 // indirect
	github.com/golang/protobuf v1.5.2 // indirect
	github.com/json-iterator/go v1.1.12 // indirect
	github.com/klauspost/compress v1.13.6 // indirect
	github.com/labstack/echo/v4 v4.6.0 // indirect
	github.com/labstack/gommon v0.3.0 // indirect
	github.com/leodido/go-urn v1.2.1 // indirect
	github.com/mattn/go-colorable v0.1.10 // indirect
	github.com/mattn/go-isatty v0.0.14 // indirect
	github.com/modern-go/concurrent v0.0.0-20180306012644-bacd9c7ef1dd // indirect
	github.com/modern-go/reflect2 v1.0.2 // indirect
	github.com/ugorji/go/codec v1.2.6 // indirect
	github.com/valyala/bytebufferpool v1.0.0 // indirect
	github.com/valyala/fasthttp v1.30.0 // indirect
	github.com/valyala/fasttemplate v1.2.1 // indirect
	github.com/valyala/tcplisten v1.0.0 // indirect
	golang.org/x/crypto v0.0.0-20210921155107-089bfa567519 // indirect
	golang.org/x/net v0.0.0-20210924151903-3ad01bbaa167 // indirect
	golang.org/x/sys v0.0.0-20210925032602-92d5a993a665 // indirect
	golang.org/x/text v0.3.7 // indirect
	google.golang.org/protobuf v1.27.1 // indirect
	gopkg.in/yaml.v2 v2.4.0 // indirect
)

require (
	github.com/golang-jwt/jwt v3.2.2+incompatible // indirect
	golang.org/x/time v0.0.0-20201208040808-7e3f01d25324 // indirect
)
